{
  "prepare_queue": {
    "installed": [],
    "uninstalled": []
  },
  "config_munge": {
    "files": {}
  },
  "installed_plugins": {
    "cordova-plugin-x-toast": {
      "PACKAGE_NAME": "com.carex.sundhedsunivers"
    },
    "cordova-plugin-screen-orientation": {
      "PACKAGE_NAME": "com.carex.sundhedsunivers"
    },
    "ionic-plugin-keyboard": {
      "PACKAGE_NAME": "com.carex.sundhedsunivers"
    },
    "phonegap-plugin-push": {
      "PACKAGE_NAME": "com.carex.sundhedsunivers"
    }
  },
  "dependent_plugins": {}
}
